%YAML 1.1
%TAG !u! tag:unity3d.com,2011:
--- !u!114 &11400000
MonoBehaviour:
  m_ObjectHideFlags: 0
  m_CorrespondingSourceObject: {fileID: 0}
  m_PrefabInstance: {fileID: 0}
  m_PrefabAsset: {fileID: 0}
  m_GameObject: {fileID: 0}
  m_Enabled: 1
  m_EditorHideFlags: 0
  m_Script: {fileID: 11500000, guid: c36935cd042ac944cba87b50f4d34c36, type: 3}
  m_Name: Boar_L1
  m_EditorClassIdentifier: 
  EasyCombatChance: 0.5
  NormalCombatChance: 0.3
  HardCombatChance: 0.2
  DefaultStatus: {fileID: 11400000, guid: 1a3608880ef02f640afc320390176196, type: 2}
  EasyCombats:
  - CombatLineUp:
    - UseDefaultValues: 1
      Parameters:
        EnemyType: 1
        LifeAmount: 0
        Initiative: 0
        AiBehavior: {fileID: 0}
    - UseDefaultValues: 1
      Parameters:
        EnemyType: 1
        LifeAmount: 0
        Initiative: 0
        AiBehavior: {fileID: 0}
    CombatWeight: 101
    IsEditorPanelVisible: 0
  - CombatLineUp:
    - UseDefaultValues: 1
      Parameters:
        EnemyType: 0
        LifeAmount: 0
        Initiative: 0
        AiBehavior: {fileID: 0}
    CombatWeight: 201
    IsEditorPanelVisible: 0
  - CombatLineUp:
    - UseDefaultValues: 1
      Parameters:
        EnemyType: 0
        LifeAmount: 0
        Initiative: 0
        AiBehavior: {fileID: 0}
    - UseDefaultValues: 1
      Parameters:
        EnemyType: 0
        LifeAmount: 0
        Initiative: 0
        AiBehavior: {fileID: 0}
    CombatWeight: 301
    IsEditorPanelVisible: 0
  NormalCombats:
  - CombatLineUp:
    - UseDefaultValues: 1
      Parameters:
        EnemyType: 0
        LifeAmount: 0
        Initiative: 0
        AiBehavior: {fileID: 0}
    CombatWeight: 151
    IsEditorPanelVisible: 0
  - CombatLineUp:
    - UseDefaultValues: 1
      Parameters:
        EnemyType: 0
        LifeAmount: 0
        Initiative: 0
        AiBehavior: {fileID: 0}
    - UseDefaultValues: 1
      Parameters:
        EnemyType: 0
        LifeAmount: 0
        Initiative: 0
        AiBehavior: {fileID: 0}
    CombatWeight: 251
    IsEditorPanelVisible: 0
  - CombatLineUp:
    - UseDefaultValues: 1
      Parameters:
        EnemyType: 0
        LifeAmount: 0
        Initiative: 0
        AiBehavior: {fileID: 0}
    - UseDefaultValues: 1
      Parameters:
        EnemyType: 0
        LifeAmount: 0
        Initiative: 0
        AiBehavior: {fileID: 0}
    - UseDefaultValues: 1
      Parameters:
        EnemyType: 0
        LifeAmount: 0
        Initiative: 0
        AiBehavior: {fileID: 0}
    CombatWeight: 351
    IsEditorPanelVisible: 0
  HardCombats:
  - CombatLineUp:
    - UseDefaultValues: 1
      Parameters:
        EnemyType: 0
        LifeAmount: 0
        Initiative: 0
        AiBehavior: {fileID: 0}
    - UseDefaultValues: 1
      Parameters:
        EnemyType: 0
        LifeAmount: 0
        Initiative: 0
        AiBehavior: {fileID: 0}
    CombatWeight: 199
    IsEditorPanelVisible: 0
  - CombatLineUp:
    - UseDefaultValues: 1
      Parameters:
        EnemyType: 0
        LifeAmount: 0
        Initiative: 0
        AiBehavior: {fileID: 0}
    - UseDefaultValues: 1
      Parameters:
        EnemyType: 0
        LifeAmount: 0
        Initiative: 0
        AiBehavior: {fileID: 0}
    - UseDefaultValues: 1
      Parameters:
        EnemyType: 0
        LifeAmount: 0
        Initiative: 0
        AiBehavior: {fileID: 0}
    CombatWeight: 299
    IsEditorPanelVisible: 0
  - CombatLineUp:
    - UseDefaultValues: 1
      Parameters:
        EnemyType: 0
        LifeAmount: 0
        Initiative: 0
        AiBehavior: {fileID: 0}
    - UseDefaultValues: 1
      Parameters:
        EnemyType: 0
        LifeAmount: 0
        Initiative: 0
        AiBehavior: {fileID: 0}
    - UseDefaultValues: 1
      Parameters:
        EnemyType: 0
        LifeAmount: 0
        Initiative: 0
        AiBehavior: {fileID: 0}
    CombatWeight: 399
    IsEditorPanelVisible: 0
