%YAML 1.1
%TAG !u! tag:unity3d.com,2011:
--- !u!114 &11400000
MonoBehaviour:
  m_ObjectHideFlags: 0
  m_CorrespondingSourceObject: {fileID: 0}
  m_PrefabInternal: {fileID: 0}
  m_GameObject: {fileID: 0}
  m_Enabled: 1
  m_EditorHideFlags: 0
  m_Script: {fileID: 11500000, guid: 6bbbe5250330dfe46a9613053d3eee3f, type: 3}
  m_Name: GeneralBehavior
  m_EditorClassIdentifier: 
  attacks:
  - {fileID: 11400000, guid: 671270e293f170a49a45b5a61f178466, type: 2}
  targetSelectors:
  - {fileID: 11400000, guid: 01a7d96ad0629864297825a2f2fa3232, type: 2}
  attackSelectionParam: 2
  selectionParameterThreshold:
  - 0
